Project   , TargetName , DonorClass  , RecipientClass , ResultClass  , Protocol , Replicates
TwistTest , 10kb_easy  , TwistTest.1 , pSL1206        , TwistTest.72 , p1       , 1
TwistTest , 10kb_easy  , TwistTest.2 , TwistTest.72   , TwistTest.73 , p2       , 1
TwistTest , 10kb_easy  , TwistTest.3 , TwistTest.73   , TwistTest.74 , p3       , 1
TwistTest , 10kb_med   , TwistTest.4 , pSL1206        , TwistTest.75 , p1       , 3
...
