Class       , Block , Backbone , Background , Selection , Plate , Well
TwistTest.1 , 34    , pSL1219  , pSL1195    , Hyg       , 101     , A1
TwistTest.2 , 35    , pSL1227  , pSL1195    , Spec      , 102     , A1
TwistTest.3 , 36    , pSL1219  , pSL1195    , Hyg       , 103     , A1
TwistTest.4 , 37    , pSL1219  , pSL1195    , Hyg       , 101     , A2
TwistTest.4 , 37    , pSL1219  , pSL1195    , Hyg       , 101     , B2
pSL1206 ,     , pSL1206  , HB101.1    , Nat       , 151     , A1:H12
...
